%YAML 1.1
%TAG !u! tag:unity3d.com,2011:
--- !u!1 &639003406414950082
GameObject:
  m_ObjectHideFlags: 0
  m_CorrespondingSourceObject: {fileID: 0}
  m_PrefabInstance: {fileID: 0}
  m_PrefabAsset: {fileID: 0}
  serializedVersion: 6
  m_Component:
  - component: {fileID: 488445379334685623}
  - component: {fileID: -578928641149766504}
  - component: {fileID: 311304137034189495}
  m_Layer: 0
  m_Name: Baulk(scale111)
  m_TagString: Untagged
  m_Icon: {fileID: 0}
  m_NavMeshLayer: 0
  m_StaticEditorFlags: 0
  m_IsActive: 1
--- !u!4 &488445379334685623
Transform:
  m_ObjectHideFlags: 0
  m_CorrespondingSourceObject: {fileID: 0}
  m_PrefabInstance: {fileID: 0}
  m_PrefabAsset: {fileID: 0}
  m_GameObject: {fileID: 639003406414950082}
  m_LocalRotation: {x: 0, y: 0, z: 0, w: 1}
  m_LocalPosition: {x: 0, y: 0, z: 0}
  m_LocalScale: {x: 1, y: 1, z: 1}
  m_Children:
  - {fileID: 1444082015796675955}
  m_Father: {fileID: 0}
  m_RootOrder: 0
  m_LocalEulerAnglesHint: {x: 0, y: 0, z: 0}
--- !u!65 &-578928641149766504
BoxCollider:
  m_ObjectHideFlags: 0
  m_CorrespondingSourceObject: {fileID: 0}
  m_PrefabInstance: {fileID: 0}
  m_PrefabAsset: {fileID: 0}
  m_GameObject: {fileID: 639003406414950082}
  m_Material: {fileID: 0}
  m_IsTrigger: 0
  m_Enabled: 1
  serializedVersion: 2
  m_Size: {x: 1, y: 1, z: 3}
  m_Center: {x: 0, y: 0, z: 0}
--- !u!114 &311304137034189495
MonoBehaviour:
  m_ObjectHideFlags: 0
  m_CorrespondingSourceObject: {fileID: 0}
  m_PrefabInstance: {fileID: 0}
  m_PrefabAsset: {fileID: 0}
  m_GameObject: {fileID: 639003406414950082}
  m_Enabled: 1
  m_EditorHideFlags: 0
  m_Script: {fileID: 11500000, guid: 68d7ad280b6a2bc4495169aaa2eb3e30, type: 3}
  m_Name: 
  m_EditorClassIdentifier: 
--- !u!1001 &8350691237763469116
PrefabInstance:
  m_ObjectHideFlags: 0
  serializedVersion: 2
  m_Modification:
    m_TransformParent: {fileID: 488445379334685623}
    m_Modifications:
    - target: {fileID: 814273685240337948, guid: f1305a330c9365643b4a6b17359015db,
        type: 3}
      propertyPath: m_Name
      value: Baulk
      objectReference: {fileID: 0}
    - target: {fileID: 7487785918423403087, guid: f1305a330c9365643b4a6b17359015db,
        type: 3}
      propertyPath: m_LocalPosition.x
      value: 0
      objectReference: {fileID: 0}
    - target: {fileID: 7487785918423403087, guid: f1305a330c9365643b4a6b17359015db,
        type: 3}
      propertyPath: m_LocalPosition.y
      value: 0
      objectReference: {fileID: 0}
    - target: {fileID: 7487785918423403087, guid: f1305a330c9365643b4a6b17359015db,
        type: 3}
      propertyPath: m_LocalPosition.z
      value: 0
      objectReference: {fileID: 0}
    - target: {fileID: 7487785918423403087, guid: f1305a330c9365643b4a6b17359015db,
        type: 3}
      propertyPath: m_LocalRotation.x
      value: -0
      objectReference: {fileID: 0}
    - target: {fileID: 7487785918423403087, guid: f1305a330c9365643b4a6b17359015db,
        type: 3}
      propertyPath: m_LocalRotation.y
      value: 1
      objectReference: {fileID: 0}
    - target: {fileID: 7487785918423403087, guid: f1305a330c9365643b4a6b17359015db,
        type: 3}
      propertyPath: m_LocalRotation.z
      value: -0
      objectReference: {fileID: 0}
    - target: {fileID: 7487785918423403087, guid: f1305a330c9365643b4a6b17359015db,
        type: 3}
      propertyPath: m_LocalRotation.w
      value: -0.00000004371139
      objectReference: {fileID: 0}
    - target: {fileID: 7487785918423403087, guid: f1305a330c9365643b4a6b17359015db,
        type: 3}
      propertyPath: m_RootOrder
      value: 0
      objectReference: {fileID: 0}
    - target: {fileID: 7487785918423403087, guid: f1305a330c9365643b4a6b17359015db,
        type: 3}
      propertyPath: m_LocalEulerAnglesHint.x
      value: 0
      objectReference: {fileID: 0}
    - target: {fileID: 7487785918423403087, guid: f1305a330c9365643b4a6b17359015db,
        type: 3}
      propertyPath: m_LocalEulerAnglesHint.y
      value: 0
      objectReference: {fileID: 0}
    - target: {fileID: 7487785918423403087, guid: f1305a330c9365643b4a6b17359015db,
        type: 3}
      propertyPath: m_LocalEulerAnglesHint.z
      value: 0
      objectReference: {fileID: 0}
    - target: {fileID: 8532865104480995809, guid: f1305a330c9365643b4a6b17359015db,
        type: 3}
      propertyPath: m_Enabled
      value: 0
      objectReference: {fileID: 0}
    m_RemovedComponents: []
  m_SourcePrefab: {fileID: 100100000, guid: f1305a330c9365643b4a6b17359015db, type: 3}
--- !u!4 &1444082015796675955 stripped
Transform:
  m_CorrespondingSourceObject: {fileID: 7487785918423403087, guid: f1305a330c9365643b4a6b17359015db,
    type: 3}
  m_PrefabInstance: {fileID: 8350691237763469116}
  m_PrefabAsset: {fileID: 0}
