# MagicaVoxel @ Ephtracy

# group
o 

# material
mtllib Main.mtl
usemtl palette

# normals
vn -1 0 0
vn 1 0 0
vn 0 0 1
vn 0 0 -1
vn 0 -1 0
vn 0 1 0

# texcoords
vt 0.130859 0.5
vt 0.912109 0.5
vt 0.958984 0.5
vt 0.986328 0.5
vt 0.994141 0.5

# verts
v 0.4 3.4 -0.9
v 0.4 3.4 -2.7
v 0.4 4.1 -0.9
v 0.4 4.1 -2.7
v 0.7 2 -1
v 0.7 2 -2
v 0.7 2.2 -1
v 0.7 2.2 -2
v 0.7 2.9 -0.9
v 0.7 2.9 -2.6
v 0.7 3.4 -0.6
v 0.7 3.4 -0.9
v 0.7 3.4 -2.6
v 0.7 4.1 -0.6
v 0.7 4.1 -0.9
v 0.9 2.2 -1.1
v 0.9 2.2 -1.4
v 0.9 2.9 -1.1
v 0.9 2.9 -1.4
v 1.3 4.7 -2.6
v 1.3 4.7 -2.7
v 1.3 4.8 -2.3
v 1.3 4.8 -2.4
v 1.3 4.9 -2.9
v 1.3 4.9 -3
v 1.3 5 -2.7
v 1.3 5 -2.9
v 1.3 5.1 -2.6
v 1.3 5.1 -2.7
v 1.3 5.1 -2.9
v 1.3 5.1 -3
v 1.3 5.2 -2.7
v 1.3 5.2 -2.9
v 1.3 5.3 -2.6
v 1.3 5.3 -3
v 1.3 5.5 -2.3
v 1.3 5.5 -2.4
v 1.4 4.1 -2
v 1.4 4.1 -2.6
v 1.4 4.1 -2.8
v 1.4 4.2 -2.8
v 1.4 4.2 -2.9
v 1.4 4.3 -2
v 1.4 4.3 -2.1
v 1.4 4.3 -2.9
v 1.4 4.3 -3
v 1.4 4.4 -2.1
v 1.4 4.4 -2.2
v 1.4 4.4 -3
v 1.4 4.4 -3.1
v 1.4 4.5 -2.2
v 1.4 4.5 -2.3
v 1.4 4.5 -3.1
v 1.4 4.5 -3.2
v 1.4 4.7 -2.6
v 1.4 4.7 -2.7
v 1.4 4.8 -2.3
v 1.4 4.8 -2.4
v 1.4 4.9 -2.9
v 1.4 4.9 -3
v 1.4 5 -2.7
v 1.4 5 -2.9
v 1.4 5.1 -2.6
v 1.4 5.1 -3
v 1.4 5.3 -2.6
v 1.4 5.3 -3
v 1.4 5.5 -2.3
v 1.4 5.5 -2.4
v 1.4 5.5 -3.2
v 1.4 5.6 -3.1
v 1.4 5.6 -3.2
v 1.4 5.8 -2.3
v 1.4 5.8 -3.1
v 1.5 4.8 -2.2
v 1.5 4.8 -2.3
v 1.5 4.8 -3.2
v 1.5 4.8 -3.4
v 1.5 5.4 -3.2
v 1.5 5.4 -3.4
v 1.5 5.5 -2.2
v 1.5 5.5 -2.3
v 1.6 4.8 -3.4
v 1.6 4.8 -4
v 1.6 5 -3.5
v 1.6 5 -4
v 1.6 5.3 -3.4
v 1.6 5.3 -3.5
v 1.7 4.8 -2.2
v 1.7 4.8 -2.3
v 1.7 5.5 -2.2
v 1.7 5.5 -2.3
v 2 4.8 -2.2
v 2 4.8 -2.3
v 2 5.5 -2.2
v 2 5.5 -2.3
v 2.3 2 -1
v 2.3 2 -2
v 2.3 2.2 -1
v 2.3 2.2 -2
v 2.5 2.2 -1.1
v 2.5 2.2 -1.4
v 2.5 2.9 -1.1
v 2.5 2.9 -1.4
v 2.5 3.4 -0.6
v 2.5 3.4 -0.9
v 2.5 3.6 -0.7
v 2.5 3.6 -0.9
v 2.5 4 -0.7
v 2.5 4 -0.9
v 2.5 4.1 -0.6
v 2.5 4.1 -0.9
v 3 3.4 -2.6
v 3 3.4 -2.7
v 3 4.1 -2.6
v 3 4.1 -2.7
v 0.7 3.4 -2.6
v 0.7 3.4 -2.7
v 0.7 4.1 -2.6
v 0.7 4.1 -2.7
v 1.2 2.2 -1.1
v 1.2 2.2 -1.4
v 1.2 2.9 -1.1
v 1.2 2.9 -1.4
v 1.2 3.4 -0.6
v 1.2 3.4 -0.9
v 1.2 3.6 -0.7
v 1.2 3.6 -0.9
v 1.2 4 -0.7
v 1.2 4 -0.9
v 1.2 4.1 -0.6
v 1.2 4.1 -0.9
v 1.4 2 -1
v 1.4 2 -2
v 1.4 2.2 -1
v 1.4 2.2 -2
v 1.6 4.8 -2.2
v 1.6 4.8 -2.3
v 1.6 5.5 -2.2
v 1.6 5.5 -2.3
v 1.8 4.8 -2.2
v 1.8 4.8 -2.3
v 1.8 5.5 -2.2
v 1.8 5.5 -2.3
v 2 4.8 -3.4
v 2 4.8 -4
v 2 5 -3.5
v 2 5 -4
v 2 5.3 -3.4
v 2 5.3 -3.5
v 2.1 4.8 -2.2
v 2.1 4.8 -2.3
v 2.1 4.8 -3.2
v 2.1 4.8 -3.4
v 2.1 5.4 -3.2
v 2.1 5.4 -3.4
v 2.1 5.5 -2.2
v 2.1 5.5 -2.3
v 2.2 4.1 -2
v 2.2 4.1 -2.6
v 2.2 4.1 -2.8
v 2.2 4.2 -2.8
v 2.2 4.2 -2.9
v 2.2 4.3 -2
v 2.2 4.3 -2.1
v 2.2 4.3 -2.9
v 2.2 4.3 -3
v 2.2 4.4 -2.1
v 2.2 4.4 -2.2
v 2.2 4.4 -3
v 2.2 4.4 -3.1
v 2.2 4.5 -2.2
v 2.2 4.5 -2.3
v 2.2 4.5 -3.1
v 2.2 4.5 -3.2
v 2.2 4.7 -2.9
v 2.2 4.7 -3
v 2.2 4.8 -2.3
v 2.2 4.8 -2.4
v 2.2 4.8 -2.5
v 2.2 4.8 -2.6
v 2.2 5 -2.6
v 2.2 5 -2.9
v 2.2 5.1 -2.5
v 2.2 5.1 -3
v 2.2 5.3 -2.5
v 2.2 5.3 -3
v 2.2 5.5 -2.3
v 2.2 5.5 -2.4
v 2.2 5.5 -3.2
v 2.2 5.6 -3.1
v 2.2 5.6 -3.2
v 2.2 5.8 -2.3
v 2.2 5.8 -3.1
v 2.3 4.7 -2.9
v 2.3 4.7 -3
v 2.3 4.8 -2.3
v 2.3 4.8 -2.4
v 2.3 4.8 -2.5
v 2.3 4.8 -2.6
v 2.3 5 -2.6
v 2.3 5 -2.9
v 2.3 5.1 -2.5
v 2.3 5.1 -2.6
v 2.3 5.1 -2.9
v 2.3 5.1 -3
v 2.3 5.2 -2.6
v 2.3 5.2 -2.9
v 2.3 5.3 -2.5
v 2.3 5.3 -3
v 2.3 5.5 -2.3
v 2.3 5.5 -2.4
v 2.8 2.2 -1.1
v 2.8 2.2 -1.4
v 2.8 2.9 -1.1
v 2.8 2.9 -1.4
v 3 2 -1
v 3 2 -2
v 3 2.2 -1
v 3 2.2 -2
v 3 2.9 -0.9
v 3 2.9 -2.6
v 3 3.4 -0.6
v 3 3.4 -0.9
v 3 3.4 -2.6
v 3 4.1 -0.6
v 3 4.1 -0.9
v 3.3 3.4 -0.9
v 3.3 3.4 -2.7
v 3.3 4.1 -0.9
v 3.3 4.1 -2.7
v 0.7 3.4 -0.6
v 0.7 4.1 -0.6
v 1.2 3.4 -0.6
v 1.2 4.1 -0.6
v 2.5 3.4 -0.6
v 2.5 4.1 -0.6
v 3 3.4 -0.6
v 3 4.1 -0.6
v 1.2 3.6 -0.7
v 1.2 4 -0.7
v 2.5 3.6 -0.7
v 2.5 4 -0.7
v 0.4 3.4 -0.9
v 0.4 4.1 -0.9
v 0.7 2.9 -0.9
v 0.7 3.4 -0.9
v 0.7 4.1 -0.9
v 1.2 3.4 -0.9
v 1.2 3.6 -0.9
v 1.2 4 -0.9
v 1.2 4.1 -0.9
v 2.5 3.4 -0.9
v 2.5 3.6 -0.9
v 2.5 4 -0.9
v 2.5 4.1 -0.9
v 3 2.9 -0.9
v 3 3.4 -0.9
v 3 4.1 -0.9
v 3.3 3.4 -0.9
v 3.3 4.1 -0.9
v 0.7 2 -1
v 0.7 2.2 -1
v 1.4 2 -1
v 1.4 2.2 -1
v 2.3 2 -1
v 2.3 2.2 -1
v 3 2 -1
v 3 2.2 -1
v 0.9 2.2 -1.1
v 0.9 2.9 -1.1
v 1.2 2.2 -1.1
v 1.2 2.9 -1.1
v 2.5 2.2 -1.1
v 2.5 2.9 -1.1
v 2.8 2.2 -1.1
v 2.8 2.9 -1.1
v 1.4 4.1 -2
v 1.4 4.3 -2
v 2.2 4.1 -2
v 2.2 4.3 -2
v 1.4 4.3 -2.1
v 1.4 4.4 -2.1
v 2.2 4.3 -2.1
v 2.2 4.4 -2.1
v 1.4 4.4 -2.2
v 1.4 4.5 -2.2
v 1.5 4.8 -2.2
v 1.5 5.5 -2.2
v 1.6 4.8 -2.2
v 1.6 5.5 -2.2
v 1.7 4.8 -2.2
v 1.7 5.5 -2.2
v 1.8 4.8 -2.2
v 1.8 5.5 -2.2
v 2 4.8 -2.2
v 2 5.5 -2.2
v 2.1 4.8 -2.2
v 2.1 5.5 -2.2
v 2.2 4.4 -2.2
v 2.2 4.5 -2.2
v 1.3 4.8 -2.3
v 1.3 5.5 -2.3
v 1.4 4.5 -2.3
v 1.4 4.8 -2.3
v 1.4 5.5 -2.3
v 1.4 5.8 -2.3
v 1.5 4.8 -2.3
v 1.5 5.5 -2.3
v 1.6 4.8 -2.3
v 1.6 5.5 -2.3
v 1.7 4.8 -2.3
v 1.7 5.5 -2.3
v 1.8 4.8 -2.3
v 1.8 5.5 -2.3
v 2 4.8 -2.3
v 2 5.5 -2.3
v 2.1 4.8 -2.3
v 2.1 5.5 -2.3
v 2.2 4.5 -2.3
v 2.2 4.8 -2.3
v 2.2 5.5 -2.3
v 2.2 5.8 -2.3
v 2.3 4.8 -2.3
v 2.3 5.5 -2.3
v 2.2 4.8 -2.5
v 2.2 5.1 -2.5
v 2.2 5.3 -2.5
v 2.3 4.8 -2.5
v 2.3 5.1 -2.5
v 2.3 5.3 -2.5
v 1.3 4.7 -2.6
v 1.3 5.1 -2.6
v 1.3 5.3 -2.6
v 1.4 4.7 -2.6
v 1.4 5.1 -2.6
v 1.4 5.3 -2.6
v 1.3 4.9 -2.9
v 1.3 5 -2.9
v 1.4 4.9 -2.9
v 1.4 5 -2.9
v 2.2 4.7 -2.9
v 2.2 5 -2.9
v 2.3 4.7 -2.9
v 2.3 5 -2.9
v 0.9 2.2 -1.4
v 0.9 2.9 -1.4
v 1.2 2.2 -1.4
v 1.2 2.9 -1.4
v 2.5 2.2 -1.4
v 2.5 2.9 -1.4
v 2.8 2.2 -1.4
v 2.8 2.9 -1.4
v 0.7 2 -2
v 0.7 2.2 -2
v 1.4 2 -2
v 1.4 2.2 -2
v 2.3 2 -2
v 2.3 2.2 -2
v 3 2 -2
v 3 2.2 -2
v 1.3 4.8 -2.4
v 1.3 5.5 -2.4
v 1.4 4.8 -2.4
v 1.4 5.5 -2.4
v 2.2 4.8 -2.4
v 2.2 5.5 -2.4
v 2.3 4.8 -2.4
v 2.3 5.5 -2.4
v 0.7 2.9 -2.6
v 0.7 3.4 -2.6
v 0.7 4.1 -2.6
v 1.4 4.1 -2.6
v 2.2 4.1 -2.6
v 2.2 4.8 -2.6
v 2.2 5 -2.6
v 2.3 4.8 -2.6
v 2.3 5 -2.6
v 3 2.9 -2.6
v 3 3.4 -2.6
v 3 4.1 -2.6
v 0.4 3.4 -2.7
v 0.4 4.1 -2.7
v 0.7 3.4 -2.7
v 0.7 4.1 -2.7
v 1.3 4.7 -2.7
v 1.3 5 -2.7
v 1.4 4.7 -2.7
v 1.4 5 -2.7
v 3 3.4 -2.7
v 3 4.1 -2.7
v 3.3 3.4 -2.7
v 3.3 4.1 -2.7
v 1.4 4.1 -2.8
v 1.4 4.2 -2.8
v 2.2 4.1 -2.8
v 2.2 4.2 -2.8
v 1.4 4.2 -2.9
v 1.4 4.3 -2.9
v 2.2 4.2 -2.9
v 2.2 4.3 -2.9
v 1.3 4.9 -3
v 1.3 5.1 -3
v 1.3 5.3 -3
v 1.4 4.3 -3
v 1.4 4.4 -3
v 1.4 4.9 -3
v 1.4 5.1 -3
v 1.4 5.3 -3
v 2.2 4.3 -3
v 2.2 4.4 -3
v 2.2 4.7 -3
v 2.2 5.1 -3
v 2.2 5.3 -3
v 2.3 4.7 -3
v 2.3 5.1 -3
v 2.3 5.3 -3
v 1.4 4.4 -3.1
v 1.4 4.5 -3.1
v 1.4 5.6 -3.1
v 1.4 5.8 -3.1
v 2.2 4.4 -3.1
v 2.2 4.5 -3.1
v 2.2 5.6 -3.1
v 2.2 5.8 -3.1
v 1.4 4.5 -3.2
v 1.4 5.5 -3.2
v 1.4 5.6 -3.2
v 1.5 4.8 -3.2
v 1.5 5.4 -3.2
v 2.1 4.8 -3.2
v 2.1 5.4 -3.2
v 2.2 4.5 -3.2
v 2.2 5.5 -3.2
v 2.2 5.6 -3.2
v 1.5 4.8 -3.4
v 1.5 5.4 -3.4
v 1.6 4.8 -3.4
v 1.6 5.3 -3.4
v 2 4.8 -3.4
v 2 5.3 -3.4
v 2.1 4.8 -3.4
v 2.1 5.4 -3.4
v 1.6 5 -3.5
v 1.6 5.3 -3.5
v 2 5 -3.5
v 2 5.3 -3.5
v 1.6 4.8 -4
v 1.6 5 -4
v 2 4.8 -4
v 2 5 -4
v 0.7 2 -1
v 1.4 2 -1
v 2.3 2 -1
v 3 2 -1
v 0.7 2 -2
v 1.4 2 -2
v 2.3 2 -2
v 3 2 -2
v 0.7 2.9 -0.9
v 3 2.9 -0.9
v 0.9 2.9 -1.1
v 1.2 2.9 -1.1
v 2.5 2.9 -1.1
v 2.8 2.9 -1.1
v 0.9 2.9 -1.4
v 1.2 2.9 -1.4
v 2.5 2.9 -1.4
v 2.8 2.9 -1.4
v 0.7 2.9 -2.6
v 3 2.9 -2.6
v 0.7 3.4 -0.6
v 1.2 3.4 -0.6
v 2.5 3.4 -0.6
v 3 3.4 -0.6
v 0.4 3.4 -0.9
v 0.7 3.4 -0.9
v 1.2 3.4 -0.9
v 2.5 3.4 -0.9
v 3 3.4 -0.9
v 3.3 3.4 -0.9
v 0.7 3.4 -2.6
v 3 3.4 -2.6
v 0.4 3.4 -2.7
v 0.7 3.4 -2.7
v 3 3.4 -2.7
v 3.3 3.4 -2.7
v 1.2 3.6 -0.7
v 2.5 3.6 -0.7
v 1.2 3.6 -0.9
v 2.5 3.6 -0.9
v 1.4 4.1 -2.6
v 2.2 4.1 -2.6
v 1.4 4.1 -2.8
v 2.2 4.1 -2.8
v 1.4 4.2 -2.8
v 2.2 4.2 -2.8
v 1.4 4.2 -2.9
v 2.2 4.2 -2.9
v 1.4 4.3 -2.9
v 2.2 4.3 -2.9
v 1.4 4.3 -3
v 2.2 4.3 -3
v 1.4 4.4 -3
v 2.2 4.4 -3
v 1.4 4.4 -3.1
v 2.2 4.4 -3.1
v 1.4 4.5 -3.1
v 2.2 4.5 -3.1
v 1.4 4.5 -3.2
v 2.2 4.5 -3.2
v 1.3 4.7 -2.6
v 1.4 4.7 -2.6
v 1.3 4.7 -2.7
v 1.4 4.7 -2.7
v 2.2 4.7 -2.9
v 2.3 4.7 -2.9
v 2.2 4.7 -3
v 2.3 4.7 -3
v 1.5 4.8 -2.2
v 1.6 4.8 -2.2
v 1.7 4.8 -2.2
v 1.8 4.8 -2.2
v 2 4.8 -2.2
v 2.1 4.8 -2.2
v 1.3 4.8 -2.3
v 1.4 4.8 -2.3
v 1.5 4.8 -2.3
v 1.6 4.8 -2.3
v 1.7 4.8 -2.3
v 1.8 4.8 -2.3
v 2 4.8 -2.3
v 2.1 4.8 -2.3
v 2.2 4.8 -2.3
v 2.3 4.8 -2.3
v 1.3 4.8 -2.4
v 1.4 4.8 -2.4
v 2.2 4.8 -2.4
v 2.3 4.8 -2.4
v 2.2 4.8 -2.5
v 2.3 4.8 -2.5
v 2.2 4.8 -2.6
v 2.3 4.8 -2.6
v 1.5 4.8 -3.2
v 2.1 4.8 -3.2
v 1.5 4.8 -3.4
v 1.6 4.8 -3.4
v 2 4.8 -3.4
v 2.1 4.8 -3.4
v 1.6 4.8 -4
v 2 4.8 -4
v 1.3 4.9 -2.9
v 1.4 4.9 -2.9
v 1.3 4.9 -3
v 1.4 4.9 -3
v 2.2 5 -2.6
v 2.3 5 -2.6
v 1.3 5 -2.7
v 1.4 5 -2.7
v 1.3 5 -2.9
v 1.4 5 -2.9
v 2.2 5 -2.9
v 2.3 5 -2.9
v 0.7 2.2 -1
v 1.4 2.2 -1
v 2.3 2.2 -1
v 3 2.2 -1
v 0.9 2.2 -1.1
v 1.2 2.2 -1.1
v 2.5 2.2 -1.1
v 2.8 2.2 -1.1
v 0.9 2.2 -1.4
v 1.2 2.2 -1.4
v 2.5 2.2 -1.4
v 2.8 2.2 -1.4
v 0.7 2.2 -2
v 1.4 2.2 -2
v 2.3 2.2 -2
v 3 2.2 -2
v 1.2 4 -0.7
v 2.5 4 -0.7
v 1.2 4 -0.9
v 2.5 4 -0.9
v 0.7 4.1 -0.6
v 1.2 4.1 -0.6
v 2.5 4.1 -0.6
v 3 4.1 -0.6
v 0.4 4.1 -0.9
v 0.7 4.1 -0.9
v 1.2 4.1 -0.9
v 2.5 4.1 -0.9
v 3 4.1 -0.9
v 3.3 4.1 -0.9
v 1.4 4.1 -2
v 2.2 4.1 -2
v 0.7 4.1 -2.6
v 1.4 4.1 -2.6
v 2.2 4.1 -2.6
v 3 4.1 -2.6
v 0.4 4.1 -2.7
v 0.7 4.1 -2.7
v 3 4.1 -2.7
v 3.3 4.1 -2.7
v 1.4 4.3 -2
v 2.2 4.3 -2
v 1.4 4.3 -2.1
v 2.2 4.3 -2.1
v 1.4 4.4 -2.1
v 2.2 4.4 -2.1
v 1.4 4.4 -2.2
v 2.2 4.4 -2.2
v 1.4 4.5 -2.2
v 2.2 4.5 -2.2
v 1.4 4.5 -2.3
v 2.2 4.5 -2.3
v 1.6 5 -3.5
v 2 5 -3.5
v 1.6 5 -4
v 2 5 -4
v 2.2 5.3 -2.5
v 2.3 5.3 -2.5
v 1.3 5.3 -2.6
v 1.4 5.3 -2.6
v 1.3 5.3 -3
v 1.4 5.3 -3
v 2.2 5.3 -3
v 2.3 5.3 -3
v 1.6 5.3 -3.4
v 2 5.3 -3.4
v 1.6 5.3 -3.5
v 2 5.3 -3.5
v 1.5 5.4 -3.2
v 2.1 5.4 -3.2
v 1.5 5.4 -3.4
v 2.1 5.4 -3.4
v 1.5 5.5 -2.2
v 1.6 5.5 -2.2
v 1.7 5.5 -2.2
v 1.8 5.5 -2.2
v 2 5.5 -2.2
v 2.1 5.5 -2.2
v 1.3 5.5 -2.3
v 1.4 5.5 -2.3
v 1.5 5.5 -2.3
v 1.6 5.5 -2.3
v 1.7 5.5 -2.3
v 1.8 5.5 -2.3
v 2 5.5 -2.3
v 2.1 5.5 -2.3
v 2.2 5.5 -2.3
v 2.3 5.5 -2.3
v 1.3 5.5 -2.4
v 1.4 5.5 -2.4
v 2.2 5.5 -2.4
v 2.3 5.5 -2.4
v 1.4 5.6 -3.1
v 2.2 5.6 -3.1
v 1.4 5.6 -3.2
v 2.2 5.6 -3.2
v 1.4 5.8 -2.3
v 2.2 5.8 -2.3
v 1.4 5.8 -3.1
v 2.2 5.8 -3.1

# faces
f 3/2/1 2/2/1 1/2/1
f 4/2/1 2/2/1 3/2/1
f 7/1/1 6/1/1 5/1/1
f 8/1/1 6/1/1 7/1/1
f 12/2/1 10/2/1 9/2/1
f 13/2/1 10/2/1 12/2/1
f 14/2/1 12/2/1 11/2/1
f 15/2/1 12/2/1 14/2/1
f 18/1/1 17/1/1 16/1/1
f 19/1/1 17/1/1 18/1/1
f 26/5/1 21/5/1 20/5/1
f 27/5/1 25/5/1 24/5/1
f 28/5/1 26/5/1 20/5/1
f 28/5/1 27/5/1 26/5/1
f 29/5/1 27/5/1 28/5/1
f 30/5/1 25/5/1 27/5/1
f 30/5/1 27/5/1 29/5/1
f 31/5/1 25/5/1 30/5/1
f 32/2/1 29/2/1 28/2/1
f 32/4/1 30/4/1 29/4/1
f 33/2/1 31/2/1 30/2/1
f 33/4/1 30/4/1 32/4/1
f 34/2/1 32/2/1 28/2/1
f 34/2/1 33/2/1 32/2/1
f 35/2/1 31/2/1 33/2/1
f 35/2/1 33/2/1 34/2/1
f 36/5/1 23/5/1 22/5/1
f 37/5/1 23/5/1 36/5/1
f 41/2/1 39/2/1 38/2/1
f 41/2/1 40/2/1 39/2/1
f 43/2/1 41/2/1 38/2/1
f 43/2/1 42/2/1 41/2/1
f 44/2/1 42/2/1 43/2/1
f 45/2/1 42/2/1 44/2/1
f 47/2/1 46/2/1 45/2/1
f 47/2/1 45/2/1 44/2/1
f 48/2/1 46/2/1 47/2/1
f 49/2/1 46/2/1 48/2/1
f 51/2/1 50/2/1 49/2/1
f 51/2/1 49/2/1 48/2/1
f 52/2/1 50/2/1 51/2/1
f 53/2/1 50/2/1 52/2/1
f 55/2/1 54/2/1 53/2/1
f 55/2/1 53/2/1 52/2/1
f 56/2/1 54/2/1 55/2/1
f 57/2/1 55/2/1 52/2/1
f 58/2/1 55/2/1 57/2/1
f 59/2/1 54/2/1 56/2/1
f 60/2/1 54/2/1 59/2/1
f 61/2/1 59/2/1 56/2/1
f 62/2/1 59/2/1 61/2/1
f 63/2/1 55/2/1 58/2/1
f 64/2/1 54/2/1 60/2/1
f 65/2/1 63/2/1 58/2/1
f 66/2/1 54/2/1 64/2/1
f 68/2/1 65/2/1 58/2/1
f 68/2/1 66/2/1 65/2/1
f 69/2/1 54/2/1 66/2/1
f 69/2/1 66/2/1 68/2/1
f 70/5/1 68/5/1 67/5/1
f 70/5/1 69/5/1 68/5/1
f 71/5/1 69/5/1 70/5/1
f 72/5/1 70/5/1 67/5/1
f 73/5/1 70/5/1 72/5/1
f 78/2/1 77/2/1 76/2/1
f 79/2/1 77/2/1 78/2/1
f 80/5/1 75/5/1 74/5/1
f 81/5/1 75/5/1 80/5/1
f 84/1/1 83/1/1 82/1/1
f 85/1/1 83/1/1 84/1/1
f 86/1/1 84/1/1 82/1/1
f 87/1/1 84/1/1 86/1/1
f 90/5/1 89/5/1 88/5/1
f 91/5/1 89/5/1 90/5/1
f 94/5/1 93/5/1 92/5/1
f 95/5/1 93/5/1 94/5/1
f 98/1/1 97/1/1 96/1/1
f 99/1/1 97/1/1 98/1/1
f 102/1/1 101/1/1 100/1/1
f 103/1/1 101/1/1 102/1/1
f 106/2/1 105/2/1 104/2/1
f 107/2/1 105/2/1 106/2/1
f 108/2/1 106/2/1 104/2/1
f 110/2/1 108/2/1 104/2/1
f 110/2/1 109/2/1 108/2/1
f 111/2/1 109/2/1 110/2/1
f 114/2/1 113/2/1 112/2/1
f 115/2/1 113/2/1 114/2/1
f 116/2/2 117/2/2 118/2/2
f 118/2/2 117/2/2 119/2/2
f 120/1/2 121/1/2 122/1/2
f 122/1/2 121/1/2 123/1/2
f 124/2/2 125/2/2 126/2/2
f 126/2/2 125/2/2 127/2/2
f 124/2/2 126/2/2 128/2/2
f 124/2/2 128/2/2 130/2/2
f 128/2/2 129/2/2 130/2/2
f 130/2/2 129/2/2 131/2/2
f 132/1/2 133/1/2 134/1/2
f 134/1/2 133/1/2 135/1/2
f 136/5/2 137/5/2 138/5/2
f 138/5/2 137/5/2 139/5/2
f 140/5/2 141/5/2 142/5/2
f 142/5/2 141/5/2 143/5/2
f 144/1/2 145/1/2 146/1/2
f 146/1/2 145/1/2 147/1/2
f 144/1/2 146/1/2 148/1/2
f 148/1/2 146/1/2 149/1/2
f 152/2/2 153/2/2 154/2/2
f 154/2/2 153/2/2 155/2/2
f 150/5/2 151/5/2 156/5/2
f 156/5/2 151/5/2 157/5/2
f 158/2/2 159/2/2 161/2/2
f 159/2/2 160/2/2 161/2/2
f 158/2/2 161/2/2 163/2/2
f 161/2/2 162/2/2 163/2/2
f 163/2/2 162/2/2 164/2/2
f 164/2/2 162/2/2 165/2/2
f 165/2/2 166/2/2 167/2/2
f 164/2/2 165/2/2 167/2/2
f 167/2/2 166/2/2 168/2/2
f 168/2/2 166/2/2 169/2/2
f 169/2/2 170/2/2 171/2/2
f 168/2/2 169/2/2 171/2/2
f 171/2/2 170/2/2 172/2/2
f 172/2/2 170/2/2 173/2/2
f 173/2/2 174/2/2 175/2/2
f 172/2/2 173/2/2 175/2/2
f 175/2/2 174/2/2 176/2/2
f 172/2/2 175/2/2 177/2/2
f 177/2/2 175/2/2 178/2/2
f 178/2/2 175/2/2 179/2/2
f 179/2/2 175/2/2 180/2/2
f 180/2/2 175/2/2 181/2/2
f 181/2/2 175/2/2 182/2/2
f 178/2/2 179/2/2 183/2/2
f 176/2/2 174/2/2 184/2/2
f 178/2/2 183/2/2 185/2/2
f 184/2/2 174/2/2 186/2/2
f 178/2/2 185/2/2 188/2/2
f 185/2/2 186/2/2 188/2/2
f 186/2/2 174/2/2 189/2/2
f 188/2/2 186/2/2 189/2/2
f 187/5/2 188/5/2 190/5/2
f 188/5/2 189/5/2 190/5/2
f 190/5/2 189/5/2 191/5/2
f 187/5/2 190/5/2 192/5/2
f 192/5/2 190/5/2 193/5/2
f 198/5/2 199/5/2 200/5/2
f 194/5/2 195/5/2 201/5/2
f 198/5/2 200/5/2 202/5/2
f 200/5/2 201/5/2 202/5/2
f 202/5/2 201/5/2 203/5/2
f 201/5/2 195/5/2 204/5/2
f 203/5/2 201/5/2 204/5/2
f 204/5/2 195/5/2 205/5/2
f 202/2/2 203/2/2 206/2/2
f 203/4/2 204/4/2 206/4/2
f 204/2/2 205/2/2 207/2/2
f 206/4/2 204/4/2 207/4/2
f 202/2/2 206/2/2 208/2/2
f 206/2/2 207/2/2 208/2/2
f 207/2/2 205/2/2 209/2/2
f 208/2/2 207/2/2 209/2/2
f 196/5/2 197/5/2 210/5/2
f 210/5/2 197/5/2 211/5/2
f 212/1/2 213/1/2 214/1/2
f 214/1/2 213/1/2 215/1/2
f 216/1/2 217/1/2 218/1/2
f 218/1/2 217/1/2 219/1/2
f 220/2/2 221/2/2 223/2/2
f 223/2/2 221/2/2 224/2/2
f 222/2/2 223/2/2 225/2/2
f 225/2/2 223/2/2 226/2/2
f 227/2/2 228/2/2 229/2/2
f 229/2/2 228/2/2 230/2/2
f 233/2/3 232/2/3 231/2/3
f 234/2/3 232/2/3 233/2/3
f 237/2/3 236/2/3 235/2/3
f 238/2/3 236/2/3 237/2/3
f 241/2/3 240/2/3 239/2/3
f 242/2/3 240/2/3 241/2/3
f 246/2/3 244/2/3 243/2/3
f 247/2/3 244/2/3 246/2/3
f 248/2/3 246/2/3 245/2/3
f 252/2/3 248/2/3 245/2/3
f 252/2/3 249/2/3 248/2/3
f 253/2/3 249/2/3 252/2/3
f 254/2/3 251/2/3 250/2/3
f 255/2/3 251/2/3 254/2/3
f 256/2/3 252/2/3 245/2/3
f 257/2/3 252/2/3 256/2/3
f 259/2/3 258/2/3 257/2/3
f 260/2/3 258/2/3 259/2/3
f 263/1/3 262/1/3 261/1/3
f 264/1/3 262/1/3 263/1/3
f 267/1/3 266/1/3 265/1/3
f 268/1/3 266/1/3 267/1/3
f 271/1/3 270/1/3 269/1/3
f 272/1/3 270/1/3 271/1/3
f 275/1/3 274/1/3 273/1/3
f 276/1/3 274/1/3 275/1/3
f 279/2/3 278/2/3 277/2/3
f 280/2/3 278/2/3 279/2/3
f 283/2/3 282/2/3 281/2/3
f 284/2/3 282/2/3 283/2/3
f 289/5/3 288/5/3 287/5/3
f 290/5/3 288/5/3 289/5/3
f 293/5/3 292/5/3 291/5/3
f 294/5/3 292/5/3 293/5/3
f 297/5/3 296/5/3 295/5/3
f 298/5/3 296/5/3 297/5/3
f 299/2/3 286/2/3 285/2/3
f 300/2/3 286/2/3 299/2/3
f 304/5/3 302/5/3 301/5/3
f 305/5/3 302/5/3 304/5/3
f 307/2/3 304/2/3 303/2/3
f 307/2/3 305/2/3 304/2/3
f 308/5/3 306/5/3 305/5/3
f 308/2/3 305/2/3 307/2/3
f 309/2/3 307/2/3 303/2/3
f 310/5/3 306/5/3 308/5/3
f 311/2/3 309/2/3 303/2/3
f 311/2/3 310/2/3 309/2/3
f 312/5/3 306/5/3 310/5/3
f 312/2/3 310/2/3 311/2/3
f 313/2/3 311/2/3 303/2/3
f 314/5/3 306/5/3 312/5/3
f 315/2/3 313/2/3 303/2/3
f 315/2/3 314/2/3 313/2/3
f 316/5/3 306/5/3 314/5/3
f 316/2/3 314/2/3 315/2/3
f 317/2/3 315/2/3 303/2/3
f 318/5/3 306/5/3 316/5/3
f 319/2/3 317/2/3 303/2/3
f 319/2/3 318/2/3 317/2/3
f 320/2/3 318/2/3 319/2/3
f 321/5/3 306/5/3 318/5/3
f 321/2/3 318/2/3 320/2/3
f 322/5/3 306/5/3 321/5/3
f 323/5/3 321/5/3 320/5/3
f 324/5/3 321/5/3 323/5/3
f 328/5/3 326/5/3 325/5/3
f 329/2/3 327/2/3 326/2/3
f 329/5/3 326/5/3 328/5/3
f 330/2/3 327/2/3 329/2/3
f 334/5/3 332/5/3 331/5/3
f 335/2/3 333/2/3 332/2/3
f 335/5/3 332/5/3 334/5/3
f 336/2/3 333/2/3 335/2/3
f 339/5/3 338/5/3 337/5/3
f 340/5/3 338/5/3 339/5/3
f 343/5/3 342/5/3 341/5/3
f 344/5/3 342/5/3 343/5/3
f 345/1/4 346/1/4 347/1/4
f 347/1/4 346/1/4 348/1/4
f 349/1/4 350/1/4 351/1/4
f 351/1/4 350/1/4 352/1/4
f 353/1/4 354/1/4 355/1/4
f 355/1/4 354/1/4 356/1/4
f 357/1/4 358/1/4 359/1/4
f 359/1/4 358/1/4 360/1/4
f 361/5/4 362/5/4 363/5/4
f 363/5/4 362/5/4 364/5/4
f 365/5/4 366/5/4 367/5/4
f 367/5/4 366/5/4 368/5/4
f 369/2/4 370/2/4 372/2/4
f 370/2/4 371/2/4 372/2/4
f 369/2/4 372/2/4 373/2/4
f 374/5/4 375/5/4 376/5/4
f 376/5/4 375/5/4 377/5/4
f 369/2/4 373/2/4 378/2/4
f 378/2/4 373/2/4 379/2/4
f 379/2/4 373/2/4 380/2/4
f 381/2/4 382/2/4 383/2/4
f 383/2/4 382/2/4 384/2/4
f 385/5/4 386/5/4 387/5/4
f 387/5/4 386/5/4 388/5/4
f 389/2/4 390/2/4 391/2/4
f 391/2/4 390/2/4 392/2/4
f 393/2/4 394/2/4 395/2/4
f 395/2/4 394/2/4 396/2/4
f 397/2/4 398/2/4 399/2/4
f 399/2/4 398/2/4 400/2/4
f 401/5/4 402/5/4 406/5/4
f 402/2/4 403/2/4 407/2/4
f 406/5/4 402/5/4 407/5/4
f 407/2/4 403/2/4 408/2/4
f 404/2/4 405/2/4 409/2/4
f 409/2/4 405/2/4 410/2/4
f 411/5/4 412/5/4 414/5/4
f 412/2/4 413/2/4 415/2/4
f 414/5/4 412/5/4 415/5/4
f 415/2/4 413/2/4 416/2/4
f 417/2/4 418/2/4 421/2/4
f 421/2/4 418/2/4 422/2/4
f 419/5/4 420/5/4 423/5/4
f 423/5/4 420/5/4 424/5/4
f 425/2/4 426/2/4 428/2/4
f 428/2/4 426/2/4 429/2/4
f 425/2/4 428/2/4 430/2/4
f 429/2/4 426/2/4 431/2/4
f 425/2/4 430/2/4 432/2/4
f 430/2/4 431/2/4 432/2/4
f 426/5/4 427/5/4 433/5/4
f 432/2/4 431/2/4 433/2/4
f 431/2/4 426/2/4 433/2/4
f 433/5/4 427/5/4 434/5/4
f 435/2/4 436/2/4 437/2/4
f 437/2/4 436/2/4 438/2/4
f 438/2/4 436/2/4 440/2/4
f 439/2/4 440/2/4 441/2/4
f 440/2/4 436/2/4 442/2/4
f 441/2/4 440/2/4 442/2/4
f 443/1/4 444/1/4 445/1/4
f 445/1/4 444/1/4 446/1/4
f 447/1/4 448/1/4 449/1/4
f 449/1/4 448/1/4 450/1/4
f 455/1/5 452/1/5 451/1/5
f 456/1/5 452/1/5 455/1/5
f 457/1/5 454/1/5 453/1/5
f 458/1/5 454/1/5 457/1/5
f 461/2/5 460/2/5 459/2/5
f 462/2/5 460/2/5 461/2/5
f 463/2/5 460/2/5 462/2/5
f 464/2/5 460/2/5 463/2/5
f 465/2/5 461/2/5 459/2/5
f 466/2/5 463/2/5 462/2/5
f 467/2/5 463/2/5 466/2/5
f 468/2/5 460/2/5 464/2/5
f 469/2/5 467/2/5 466/2/5
f 469/2/5 468/2/5 467/2/5
f 469/2/5 465/2/5 459/2/5
f 469/2/5 466/2/5 465/2/5
f 470/2/5 460/2/5 468/2/5
f 470/2/5 468/2/5 469/2/5
f 476/2/5 472/2/5 471/2/5
f 477/2/5 472/2/5 476/2/5
f 478/2/5 474/2/5 473/2/5
f 479/2/5 474/2/5 478/2/5
f 481/2/5 476/2/5 475/2/5
f 482/2/5 480/2/5 479/2/5
f 483/2/5 481/2/5 475/2/5
f 484/2/5 481/2/5 483/2/5
f 485/2/5 480/2/5 482/2/5
f 486/2/5 480/2/5 485/2/5
f 489/2/5 488/2/5 487/2/5
f 490/2/5 488/2/5 489/2/5
f 493/2/5 492/2/5 491/2/5
f 494/2/5 492/2/5 493/2/5
f 497/2/5 496/2/5 495/2/5
f 498/2/5 496/2/5 497/2/5
f 501/2/5 500/2/5 499/2/5
f 502/2/5 500/2/5 501/2/5
f 505/2/5 504/2/5 503/2/5
f 506/2/5 504/2/5 505/2/5
f 509/2/5 508/2/5 507/2/5
f 510/2/5 508/2/5 509/2/5
f 513/5/5 512/5/5 511/5/5
f 514/5/5 512/5/5 513/5/5
f 517/5/5 516/5/5 515/5/5
f 518/5/5 516/5/5 517/5/5
f 527/5/5 520/5/5 519/5/5
f 528/5/5 520/5/5 527/5/5
f 529/5/5 522/5/5 521/5/5
f 530/5/5 522/5/5 529/5/5
f 531/5/5 524/5/5 523/5/5
f 532/5/5 524/5/5 531/5/5
f 535/5/5 526/5/5 525/5/5
f 536/5/5 526/5/5 535/5/5
f 537/5/5 534/5/5 533/5/5
f 538/5/5 534/5/5 537/5/5
f 541/5/5 540/5/5 539/5/5
f 542/5/5 540/5/5 541/5/5
f 545/2/5 544/2/5 543/2/5
f 546/2/5 544/2/5 545/2/5
f 547/2/5 544/2/5 546/2/5
f 548/2/5 544/2/5 547/2/5
f 549/1/5 547/1/5 546/1/5
f 550/1/5 547/1/5 549/1/5
f 553/5/5 552/5/5 551/5/5
f 554/5/5 552/5/5 553/5/5
f 559/5/5 558/5/5 557/5/5
f 560/5/5 558/5/5 559/5/5
f 561/5/5 556/5/5 555/5/5
f 562/5/5 556/5/5 561/5/5
f 563/1/6 564/1/6 567/1/6
f 567/1/6 564/1/6 568/1/6
f 565/1/6 566/1/6 569/1/6
f 569/1/6 566/1/6 570/1/6
f 563/1/6 567/1/6 571/1/6
f 568/1/6 564/1/6 572/1/6
f 565/1/6 569/1/6 573/1/6
f 570/1/6 566/1/6 574/1/6
f 563/1/6 571/1/6 575/1/6
f 571/1/6 572/1/6 575/1/6
f 572/1/6 564/1/6 576/1/6
f 575/1/6 572/1/6 576/1/6
f 573/1/6 574/1/6 577/1/6
f 565/1/6 573/1/6 577/1/6
f 574/1/6 566/1/6 578/1/6
f 577/1/6 574/1/6 578/1/6
f 579/2/6 580/2/6 581/2/6
f 581/2/6 580/2/6 582/2/6
f 583/2/6 584/2/6 588/2/6
f 588/2/6 584/2/6 589/2/6
f 585/2/6 586/2/6 590/2/6
f 590/2/6 586/2/6 591/2/6
f 588/2/6 589/2/6 593/2/6
f 591/2/6 592/2/6 593/2/6
f 590/2/6 591/2/6 593/2/6
f 589/2/6 590/2/6 593/2/6
f 587/2/6 588/2/6 593/2/6
f 593/2/6 592/2/6 594/2/6
f 587/2/6 593/2/6 595/2/6
f 595/2/6 593/2/6 596/2/6
f 594/2/6 592/2/6 597/2/6
f 597/2/6 592/2/6 598/2/6
f 587/2/6 595/2/6 599/2/6
f 599/2/6 595/2/6 600/2/6
f 598/2/6 592/2/6 601/2/6
f 601/2/6 592/2/6 602/2/6
f 603/2/6 604/2/6 605/2/6
f 605/2/6 604/2/6 606/2/6
f 607/2/6 608/2/6 609/2/6
f 609/2/6 608/2/6 610/2/6
f 611/2/6 612/2/6 613/2/6
f 613/2/6 612/2/6 614/2/6
f 615/1/6 616/1/6 617/1/6
f 617/1/6 616/1/6 618/1/6
f 621/2/6 622/2/6 623/2/6
f 623/2/6 622/2/6 624/2/6
f 619/2/6 620/2/6 625/2/6
f 625/2/6 620/2/6 626/2/6
f 627/1/6 628/1/6 629/1/6
f 629/1/6 628/1/6 630/1/6
f 631/2/6 632/2/6 633/2/6
f 633/2/6 632/2/6 634/2/6
f 635/5/6 636/5/6 643/5/6
f 643/5/6 636/5/6 644/5/6
f 637/5/6 638/5/6 645/5/6
f 645/5/6 638/5/6 646/5/6
f 639/5/6 640/5/6 647/5/6
f 647/5/6 640/5/6 648/5/6
f 641/5/6 642/5/6 651/5/6
f 651/5/6 642/5/6 652/5/6
f 649/5/6 650/5/6 653/5/6
f 653/5/6 650/5/6 654/5/6
f 655/5/6 656/5/6 657/5/6
f 657/5/6 656/5/6 658/5/6
f 659/5/6 660/5/6 661/5/6
f 661/5/6 660/5/6 662/5/6
