%YAML 1.1
%TAG !u! tag:unity3d.com,2011:
--- !u!1 &327986911948790547
GameObject:
  m_ObjectHideFlags: 0
  m_CorrespondingSourceObject: {fileID: 0}
  m_PrefabInstance: {fileID: 0}
  m_PrefabAsset: {fileID: 0}
  serializedVersion: 6
  m_Component:
  - component: {fileID: 3186316383084274272}
  - component: {fileID: 3903618852972450495}
  m_Layer: 0
  m_Name: Tree2[collider]
  m_TagString: tree
  m_Icon: {fileID: 0}
  m_NavMeshLayer: 0
  m_StaticEditorFlags: 0
  m_IsActive: 1
--- !u!4 &3186316383084274272
Transform:
  m_ObjectHideFlags: 0
  m_CorrespondingSourceObject: {fileID: 0}
  m_PrefabInstance: {fileID: 0}
  m_PrefabAsset: {fileID: 0}
  m_GameObject: {fileID: 327986911948790547}
  m_LocalRotation: {x: 0, y: 0, z: 0, w: 1}
  m_LocalPosition: {x: 0, y: 0, z: 0}
  m_LocalScale: {x: 1, y: 1, z: 1}
  m_Children:
  - {fileID: 6433002895105416228}
  m_Father: {fileID: 0}
  m_RootOrder: 0
  m_LocalEulerAnglesHint: {x: 0, y: 0, z: 0}
--- !u!65 &3903618852972450495
BoxCollider:
  m_ObjectHideFlags: 0
  m_CorrespondingSourceObject: {fileID: 0}
  m_PrefabInstance: {fileID: 0}
  m_PrefabAsset: {fileID: 0}
  m_GameObject: {fileID: 327986911948790547}
  m_Material: {fileID: 13400000, guid: 607eb5fe66f999440b3778f05d103d38, type: 2}
  m_IsTrigger: 1
  m_Enabled: 1
  serializedVersion: 2
  m_Size: {x: 1, y: 3, z: 1}
  m_Center: {x: 0, y: 0.5, z: 0}
--- !u!1001 &2034548145186731838
PrefabInstance:
  m_ObjectHideFlags: 0
  serializedVersion: 2
  m_Modification:
    m_TransformParent: {fileID: 3186316383084274272}
    m_Modifications:
    - target: {fileID: -5975033157549033438, guid: 8bbbbef08d542fd4baf755b26a0b9362,
        type: 3}
      propertyPath: m_LocalPosition.y
      value: -0.469
      objectReference: {fileID: 0}
    - target: {fileID: -5975033157549033438, guid: 8bbbbef08d542fd4baf755b26a0b9362,
        type: 3}
      propertyPath: m_LocalScale.x
      value: 1.25
      objectReference: {fileID: 0}
    - target: {fileID: -5975033157549033438, guid: 8bbbbef08d542fd4baf755b26a0b9362,
        type: 3}
      propertyPath: m_LocalScale.y
      value: 1.25
      objectReference: {fileID: 0}
    - target: {fileID: -5975033157549033438, guid: 8bbbbef08d542fd4baf755b26a0b9362,
        type: 3}
      propertyPath: m_LocalScale.z
      value: 1.25
      objectReference: {fileID: 0}
    - target: {fileID: -4216859302048453862, guid: 8bbbbef08d542fd4baf755b26a0b9362,
        type: 3}
      propertyPath: m_LocalPosition.x
      value: 0.5
      objectReference: {fileID: 0}
    - target: {fileID: -4216859302048453862, guid: 8bbbbef08d542fd4baf755b26a0b9362,
        type: 3}
      propertyPath: m_LocalPosition.y
      value: -0.038
      objectReference: {fileID: 0}
    - target: {fileID: -4216859302048453862, guid: 8bbbbef08d542fd4baf755b26a0b9362,
        type: 3}
      propertyPath: m_LocalPosition.z
      value: 0.5
      objectReference: {fileID: 0}
    - target: {fileID: -4216859302048453862, guid: 8bbbbef08d542fd4baf755b26a0b9362,
        type: 3}
      propertyPath: m_LocalRotation.x
      value: -0
      objectReference: {fileID: 0}
    - target: {fileID: -4216859302048453862, guid: 8bbbbef08d542fd4baf755b26a0b9362,
        type: 3}
      propertyPath: m_LocalRotation.y
      value: -0
      objectReference: {fileID: 0}
    - target: {fileID: -4216859302048453862, guid: 8bbbbef08d542fd4baf755b26a0b9362,
        type: 3}
      propertyPath: m_LocalRotation.z
      value: -0
      objectReference: {fileID: 0}
    - target: {fileID: -4216859302048453862, guid: 8bbbbef08d542fd4baf755b26a0b9362,
        type: 3}
      propertyPath: m_LocalRotation.w
      value: 1
      objectReference: {fileID: 0}
    - target: {fileID: -4216859302048453862, guid: 8bbbbef08d542fd4baf755b26a0b9362,
        type: 3}
      propertyPath: m_RootOrder
      value: 0
      objectReference: {fileID: 0}
    - target: {fileID: -4216859302048453862, guid: 8bbbbef08d542fd4baf755b26a0b9362,
        type: 3}
      propertyPath: m_LocalEulerAnglesHint.x
      value: 0
      objectReference: {fileID: 0}
    - target: {fileID: -4216859302048453862, guid: 8bbbbef08d542fd4baf755b26a0b9362,
        type: 3}
      propertyPath: m_LocalEulerAnglesHint.y
      value: 0
      objectReference: {fileID: 0}
    - target: {fileID: -4216859302048453862, guid: 8bbbbef08d542fd4baf755b26a0b9362,
        type: 3}
      propertyPath: m_LocalEulerAnglesHint.z
      value: 0
      objectReference: {fileID: 0}
    - target: {fileID: -927199367670048503, guid: 8bbbbef08d542fd4baf755b26a0b9362,
        type: 3}
      propertyPath: m_Name
      value: Tree2
      objectReference: {fileID: 0}
    m_RemovedComponents: []
  m_SourcePrefab: {fileID: 100100000, guid: 8bbbbef08d542fd4baf755b26a0b9362, type: 3}
--- !u!4 &6433002895105416228 stripped
Transform:
  m_CorrespondingSourceObject: {fileID: -4216859302048453862, guid: 8bbbbef08d542fd4baf755b26a0b9362,
    type: 3}
  m_PrefabInstance: {fileID: 2034548145186731838}
  m_PrefabAsset: {fileID: 0}
